{
  "images": [
    {
      "scale": "2x",
      "idiom": "universal"
    },
    {
      "scale": "3x",
      "idiom": "universal"
    },
    {
      "scale": "1x",
      "idiom": "universal",
      "filename": "baseline_add_black_48pt_1x.png"
    }
  ],
  "properties": {},
  "info": {
    "version": 1,
    "author": ""
  }
}